<svg width="34" height="35" viewBox="0 0 34 35" fill="none" xmlns="http://www.w3.org/2000/svg">
<path d="M16.8 0.5C7.5215 0.5 0 8.0215 0 17.3C0 26.5785 7.5215 34.1 16.8 34.1C26.0785 34.1 33.6 26.5785 33.6 17.3C33.6 8.0215 26.0785 0.5 16.8 0.5ZM20.7795 12.1095H18.2543C17.955 12.1095 17.6225 12.5033 17.6225 13.0265V14.85H20.7813L20.3035 17.4505H17.6225V25.2573H14.6423V17.4505H11.9385V14.85H14.6423V13.3205C14.6423 11.126 16.1648 9.34275 18.2543 9.34275H20.7795V12.1095Z" fill="white"/>
</svg>

